# Blender v2.79 (sub 0) OBJ File: 'untitled.blend'
# www.blender.org
mtllib Platform_4_Corner_Left.mtl
o Cube.103_Cube.046
v -2.377141 0.131117 -7.997964
v -2.377141 0.164543 -7.997964
v -2.227156 0.164543 -7.997664
v -2.227156 0.131117 -7.997664
v -2.228889 0.164541 7.591492
v -2.228889 0.131115 7.591492
v -2.378873 0.164541 7.591190
v -2.378873 0.131115 7.591190
v -0.036638 6.053151 -3.013522
v -0.123198 6.052567 -3.014377
v -0.125072 6.052188 -2.824191
v -0.038512 6.052771 -2.823337
v -0.085597 0.153349 -2.798283
v 0.000962 0.153931 -2.797428
v -0.083723 0.153730 -2.988468
v 0.002837 0.154312 -2.987614
v -5.873975 0.131117 -7.997964
v -5.873975 0.164543 -7.997964
v -5.723990 0.164543 -7.997664
v -5.723990 0.131117 -7.997664
v -5.725721 0.164541 7.591492
v -5.725721 0.131115 7.591492
v -5.875708 0.164541 7.591190
v -5.875708 0.131115 7.591190
v -6.748184 0.131117 -7.997964
v -6.748184 0.164543 -7.997964
v -6.598198 0.164543 -7.997664
v -6.598198 0.131117 -7.997664
v -6.599930 0.164541 7.591492
v -6.599930 0.131115 7.591492
v -6.749915 0.164541 7.591190
v -6.749915 0.131115 7.591190
v -6.679934 6.033222 -8.095255
v -6.679934 6.032639 -8.008691
v -6.489739 6.032259 -8.008694
v -6.489739 6.032842 -8.095258
v -6.464221 0.133420 -8.048423
v -6.464221 0.134003 -8.134987
v -6.654414 0.133800 -8.048421
v -6.654414 0.134383 -8.134984
v -0.026754 6.053151 -4.014927
v -0.113314 6.052567 -4.015782
v -0.115188 6.052188 -3.825598
v -0.028629 6.052771 -3.824743
v -0.075714 0.153350 -3.799687
v 0.010846 0.153932 -3.798835
v -0.073839 0.153730 -3.989873
v 0.012720 0.154313 -3.989018
v -4.999767 0.131117 -7.997964
v -4.999767 0.164543 -7.997964
v -4.849782 0.164543 -7.997664
v -4.849782 0.131117 -7.997664
v -4.851513 0.164541 7.591492
v -4.851513 0.131115 7.591492
v -5.001498 0.164541 7.591190
v -5.001498 0.131115 7.591190
v -1.940037 0.131117 -7.997964
v -1.940037 0.164543 -7.997964
v -1.790052 0.164543 -7.997664
v -1.790052 0.131117 -7.997664
v -1.791783 0.164541 7.591492
v -1.791783 0.131115 7.591492
v -1.941769 0.164541 7.591190
v -1.941769 0.131115 7.591190
v -0.055410 6.053149 6.776687
v -0.141969 6.052566 6.775832
v -0.143844 6.052186 6.966018
v -0.057284 6.052769 6.966872
v -0.104369 0.153348 6.991926
v -0.017810 0.153930 6.992781
v -0.102495 0.153728 6.801741
v -0.015935 0.154311 6.802595
v -3.688454 0.131117 -7.997964
v -3.688454 0.164543 -7.997964
v -3.538469 0.164543 -7.997664
v -3.538469 0.131117 -7.997664
v -3.540200 0.164541 7.591492
v -3.540200 0.131115 7.591492
v -3.690187 0.164541 7.591190
v -3.690187 0.131115 7.591190
v -5.436872 0.131117 -7.997964
v -5.436872 0.164543 -7.997964
v -5.286886 0.164543 -7.997664
v -5.286886 0.131117 -7.997664
v -5.288617 0.164541 7.591492
v -5.288617 0.131115 7.591492
v -5.438602 0.164541 7.591190
v -5.438602 0.131115 7.591190
v 0.011402 6.053151 -7.881015
v -0.075158 6.052568 -7.881869
v -0.077032 6.052189 -7.691686
v 0.009527 6.052771 -7.690831
v -0.037559 0.153350 -7.665777
v 0.049002 0.153932 -7.664923
v -0.035683 0.153730 -7.855961
v 0.050876 0.154313 -7.855105
v -6.311080 0.131117 -7.997964
v -6.311080 0.164543 -7.997964
v -6.161095 0.164543 -7.997664
v -6.161095 0.131117 -7.997664
v -6.162827 0.164541 7.591492
v -6.162827 0.131115 7.591492
v -6.312811 0.164541 7.591190
v -6.312811 0.131115 7.591190
v -0.036638 6.053149 4.874640
v -0.123198 6.052566 4.873786
v -0.125072 6.052187 5.063972
v -0.038512 6.052769 5.064826
v -0.085597 0.153348 5.089880
v 0.000962 0.153930 5.090734
v -0.083723 0.153728 4.899694
v 0.002837 0.154311 4.900549
v 0.002895 6.053150 0.869020
v -0.083664 6.052567 0.868165
v -0.085539 6.052187 1.058351
v 0.001020 6.052770 1.059205
v -0.046064 0.153349 1.084259
v 0.040496 0.153931 1.085114
v -0.044189 0.153729 0.894073
v 0.042370 0.154312 0.894928
v -0.028166 -0.114273 5.139473
v -0.028166 0.045078 5.139473
v -0.028185 0.045078 5.315948
v -0.028185 -0.114273 5.315948
v -7.870837 0.045078 5.315132
v -7.870837 -0.114273 5.315132
v -7.870819 0.045078 5.138657
v -7.870819 -0.114273 5.138657
v -0.016871 6.053151 -5.016333
v -0.103430 6.052567 -5.017187
v -0.105305 6.052188 -4.827003
v -0.018745 6.052771 -4.826149
v -0.065830 0.153350 -4.801094
v 0.020729 0.153932 -4.800241
v -0.063956 0.153730 -4.991279
v 0.022604 0.154313 -4.990424
v -0.006989 6.053150 1.870423
v -0.093547 6.052567 1.869569
v -0.095422 6.052187 2.059754
v -0.008862 6.052770 2.060609
v -0.055947 0.153349 2.085663
v 0.030613 0.153931 2.086517
v -0.054072 0.153729 1.895477
v 0.032487 0.154312 1.896332
v -0.046521 6.053149 5.876046
v -0.133081 6.052566 5.875192
v -0.134955 6.052187 6.065377
v -0.048396 6.052769 6.066232
v -0.095480 0.153348 6.091286
v -0.008921 0.153930 6.092140
v -0.093606 0.153728 5.901100
v -0.007046 0.154311 5.901955
v -0.771977 6.033222 -8.095255
v -0.771977 6.032639 -8.008691
v -0.581784 6.032259 -8.008694
v -0.581784 6.032842 -8.095258
v -0.556265 0.133420 -8.048423
v -0.556265 0.134003 -8.134987
v -0.746458 0.133800 -8.048421
v -0.746458 0.134383 -8.134984
v -7.622393 0.131117 -7.997964
v -7.622393 0.164543 -7.997964
v -7.472407 0.164543 -7.997664
v -7.472407 0.131117 -7.997664
v -7.474138 0.164541 7.591492
v -7.474138 0.131115 7.591492
v -7.624125 0.164541 7.591190
v -7.624125 0.131115 7.591190
v -4.125558 0.131117 -7.997964
v -4.125558 0.164543 -7.997964
v -3.975574 0.164543 -7.997664
v -3.975574 0.131117 -7.997664
v -3.977304 0.164541 7.591492
v -3.977304 0.131115 7.591492
v -4.127290 0.164541 7.591190
v -4.127290 0.131115 7.591190
v -0.028166 -0.114271 -5.838557
v -0.028166 0.045080 -5.838557
v -0.028185 0.045080 -5.662080
v -0.028185 -0.114271 -5.662080
v -7.870837 0.045080 -5.662896
v -7.870837 -0.114271 -5.662896
v -7.870819 0.045080 -5.839374
v -7.870819 -0.114271 -5.839374
v -2.814246 0.131117 -7.997964
v -2.814246 0.164543 -7.997964
v -2.664260 0.164543 -7.997664
v -2.664260 0.131117 -7.997664
v -2.665992 0.164541 7.591492
v -2.665992 0.131115 7.591492
v -2.815977 0.164541 7.591190
v -2.815977 0.131115 7.591190
v -0.028166 -0.114272 -0.349543
v -0.028166 0.045079 -0.349543
v -0.028185 0.045079 -0.173067
v -0.028185 -0.114272 -0.173067
v -7.870837 0.045079 -0.173883
v -7.870837 -0.114272 -0.173883
v -7.870819 0.045079 -0.350359
v -7.870819 -0.114272 -0.350359
v -1.065829 0.131117 -7.997964
v -1.065829 0.164543 -7.997964
v -0.915844 0.164543 -7.997664
v -0.915844 0.131117 -7.997664
v -0.917575 0.164541 7.591492
v -0.917575 0.131115 7.591492
v -1.067560 0.164541 7.591190
v -1.067560 0.131115 7.591190
v -4.677024 6.033222 -8.095255
v -4.677024 6.032639 -8.008691
v -4.486832 6.032259 -8.008694
v -4.486832 6.032842 -8.095258
v -4.461312 0.133420 -8.048423
v -4.461312 0.134003 -8.134987
v -4.651505 0.133800 -8.048421
v -4.651505 0.134383 -8.134984
v -0.055410 6.053150 -1.111476
v -0.141969 6.052567 -1.112330
v -0.143844 6.052188 -0.922145
v -0.057284 6.052770 -0.921290
v -0.104369 0.153349 -0.896236
v -0.017810 0.153931 -0.895382
v -0.102495 0.153729 -1.086422
v -0.015935 0.154312 -1.085567
v -0.046521 6.053150 -2.012116
v -0.133081 6.052567 -2.012971
v -0.134955 6.052188 -1.822785
v -0.048396 6.052770 -1.821931
v -0.095480 0.153349 -1.796877
v -0.008921 0.153931 -1.796022
v -0.093606 0.153729 -1.987062
v -0.007046 0.154312 -1.986208
v -3.675570 6.033222 -8.095255
v -3.675570 6.032639 -8.008691
v -3.485377 6.032259 -8.008694
v -3.485377 6.032842 -8.095258
v -3.459858 0.133420 -8.048423
v -3.459858 0.134003 -8.134987
v -3.650051 0.133800 -8.048421
v -3.650051 0.134383 -8.134984
v -2.674116 6.033222 -8.095255
v -2.674116 6.032639 -8.008691
v -2.483922 6.032259 -8.008694
v -2.483922 6.032842 -8.095258
v -2.458405 0.133420 -8.048423
v -2.458405 0.134003 -8.134987
v -2.648597 0.133800 -8.048421
v -2.648597 0.134383 -8.134984
v -1.672662 6.033222 -8.095255
v -1.672662 6.032639 -8.008691
v -1.482468 6.032259 -8.008694
v -1.482468 6.032842 -8.095258
v -1.456949 0.133420 -8.048423
v -1.456949 0.134003 -8.134987
v -1.647143 0.133800 -8.048421
v -1.647143 0.134383 -8.134984
v -4.562663 0.131117 -7.997964
v -4.562663 0.164543 -7.997964
v -4.412677 0.164543 -7.997664
v -4.412677 0.131117 -7.997664
v -4.414410 0.164541 7.591492
v -4.414410 0.131115 7.591492
v -4.564394 0.164541 7.591190
v -4.564394 0.131115 7.591190
v -1.502934 0.131117 -7.997964
v -1.502934 0.164543 -7.997964
v -1.352948 0.164543 -7.997664
v -1.352948 0.131117 -7.997664
v -1.354679 0.164541 7.591492
v -1.354679 0.131115 7.591492
v -1.504664 0.164541 7.591190
v -1.504664 0.131115 7.591190
v 0.002895 6.053151 -7.019144
v -0.083664 6.052568 -7.019999
v -0.085539 6.052189 -6.829815
v 0.001020 6.052771 -6.828961
v -0.046064 0.153350 -6.803905
v 0.040496 0.153932 -6.803052
v -0.044189 0.153730 -6.994090
v 0.042370 0.154313 -6.993236
v -0.006989 6.053151 -6.017738
v -0.093547 6.052568 -6.018593
v -0.095422 6.052189 -5.828409
v -0.008862 6.052771 -5.827555
v -0.055947 0.153350 -5.802500
v 0.030613 0.153932 -5.801646
v -0.054072 0.153730 -5.992685
v 0.032487 0.154313 -5.991830
v -0.628725 0.131117 -7.997964
v -0.628725 0.164543 -7.997964
v -0.478739 0.164543 -7.997664
v -0.478739 0.131117 -7.997664
v -0.480471 0.164541 7.591492
v -0.480471 0.131115 7.591492
v -0.630456 0.164541 7.591190
v -0.630456 0.131115 7.591190
v -0.081923 6.168247 7.737420
v 0.081923 6.168247 7.737420
v 0.081923 6.168247 7.573575
v -0.090645 6.168247 7.573575
v -0.081923 -0.306996 7.737419
v -0.081923 -0.306996 7.573574
v 0.081923 -0.306996 7.573574
v 0.081923 -0.306996 7.737419
v -7.830583 0.165857 7.573574
v -7.987813 0.165857 7.573574
v -7.987813 0.165857 7.737419
v -7.830583 0.165857 7.737419
v 0.081927 6.018925 -8.215443
v 0.081921 0.166908 -8.173349
v -0.081926 0.166908 -8.173349
v -0.081919 6.018925 -8.215443
v 0.081923 0.165857 7.573574
v 0.081923 0.165857 7.737419
v -0.081923 6.018923 7.737420
v 0.081923 6.018923 7.737420
v -0.081923 0.165857 7.737419
v 0.081923 6.018923 7.573575
v -0.090645 6.018923 7.573575
v -0.081923 0.165857 7.573574
v 0.081927 0.165859 -7.995166
v 0.081927 0.165859 -8.174874
v -0.081919 0.165859 -8.174874
v -0.081919 0.165859 -7.995166
v -7.987813 -0.306996 7.573574
v -7.987813 -0.306996 7.737419
v -7.830583 -0.306996 7.737419
v -7.830583 -0.306996 7.573574
v -7.987813 -0.306994 -7.996612
v -7.830583 -0.306994 -7.996612
v 0.081927 -0.306994 -8.176007
v -0.081919 -0.306994 -8.174874
v -0.081919 6.168249 -8.215443
v 0.081927 6.168249 -8.210062
v 0.081927 6.168249 -8.032654
v -0.090641 6.168249 -8.037350
v -7.799220 6.018925 -8.215446
v -7.988019 6.018925 -8.215446
v -7.977829 6.168249 -8.215446
v -7.799220 6.168249 -8.215446
v -0.081919 -0.306994 -7.995166
v 0.081927 -0.306994 -7.978621
v -7.986760 -0.306994 -7.995170
v -7.986760 -0.306994 -8.174878
v 0.081927 6.018925 -8.037350
v -0.090641 6.018925 -8.037350
v -7.977829 6.168249 -8.037354
v -7.988019 6.018925 -8.037354
v -7.986760 0.165859 -7.995170
v -7.986760 0.165859 -8.174878
v -7.799220 6.168249 -8.037354
v -7.799220 6.018925 -8.037354
v -7.799220 0.164750 -7.996928
v -7.799220 0.164750 -8.175022
v -0.081926 0.166908 -7.995258
v 0.081921 0.166908 -7.995258
v -7.988019 0.164750 -7.996928
v -7.988019 0.164750 -8.175022
v -7.835555 0.165528 7.737419
v -7.987813 0.165528 7.737419
v -7.987813 0.165528 7.573574
v -7.835555 0.165528 7.573574
v -7.987813 0.165859 -7.996612
v -7.830583 0.165859 -7.996612
v 0.011402 6.053150 0.007148
v -0.075158 6.052567 0.006293
v -0.077032 6.052188 0.196479
v 0.009527 6.052770 0.197333
v -0.037559 0.153349 0.222387
v 0.049002 0.153931 0.223242
v -0.035683 0.153729 0.032202
v 0.050876 0.154312 0.033056
v -3.251350 0.131117 -7.997964
v -3.251350 0.164543 -7.997964
v -3.101365 0.164543 -7.997664
v -3.101365 0.131117 -7.997664
v -3.103096 0.164541 7.591492
v -3.103096 0.131115 7.591492
v -3.253081 0.164541 7.591190
v -3.253081 0.131115 7.591190
v -7.541846 6.033222 -8.095255
v -7.541846 6.032639 -8.008691
v -7.351652 6.032259 -8.008694
v -7.351652 6.032842 -8.095258
v -7.326135 0.133420 -8.048423
v -7.326135 0.134003 -8.134987
v -7.516327 0.133800 -8.048421
v -7.516327 0.134383 -8.134984
v -5.678479 6.033222 -8.095255
v -5.678479 6.032639 -8.008691
v -5.488285 6.032259 -8.008694
v -5.488285 6.032842 -8.095258
v -5.462768 0.133420 -8.048423
v -5.462768 0.134003 -8.134987
v -5.652960 0.133800 -8.048421
v -5.652960 0.134383 -8.134984
v -0.028166 -0.114272 2.394966
v -0.028166 0.045079 2.394966
v -0.028185 0.045079 2.571442
v -0.028185 -0.114272 2.571442
v -7.870837 0.045079 2.570625
v -7.870837 -0.114272 2.570625
v -7.870819 0.045079 2.394150
v -7.870819 -0.114272 2.394150
v -0.028166 -0.114272 -3.094049
v -0.028166 0.045079 -3.094049
v -0.028185 0.045079 -2.917574
v -0.028185 -0.114272 -2.917574
v -7.870837 0.045079 -2.918390
v -7.870837 -0.114272 -2.918390
v -7.870819 0.045079 -3.094866
v -7.870819 -0.114272 -3.094866
v -0.016871 6.053150 2.871831
v -0.103430 6.052567 2.870976
v -0.105305 6.052187 3.061162
v -0.018745 6.052770 3.062016
v -0.065830 0.153348 3.087070
v 0.020729 0.153930 3.087925
v -0.063956 0.153729 2.896885
v 0.022604 0.154311 2.897739
v -0.026754 6.053149 3.873235
v -0.113314 6.052566 3.872380
v -0.115188 6.052187 4.062566
v -0.028629 6.052769 4.063420
v -0.075714 0.153348 4.088474
v 0.010846 0.153930 4.089329
v -0.073839 0.153728 3.898289
v 0.012720 0.154311 3.899143
v -7.185288 0.131117 -7.997964
v -7.185288 0.164543 -7.997964
v -7.035303 0.164543 -7.997664
v -7.035303 0.131117 -7.997664
v -7.037034 0.164541 7.591492
v -7.037034 0.131115 7.591492
v -7.187019 0.164541 7.591190
v -7.187019 0.131115 7.591190
vn 0.0020 0.0000 -1.0000
vn 1.0000 0.0000 0.0001
vn -0.0020 0.0000 1.0000
vn -1.0000 0.0000 -0.0001
vn 0.0000 -1.0000 -0.0000
vn -0.0000 1.0000 0.0000
vn -0.0068 1.0000 0.0019
vn -0.0099 0.0043 0.9999
vn 0.0067 -1.0000 -0.0019
vn 0.0099 -0.0043 -0.9999
vn 0.9999 0.0067 0.0099
vn -0.9999 -0.0067 -0.0099
vn 0.0020 1.0000 0.0067
vn 1.0000 0.0043 0.0000
vn -0.0020 -1.0000 -0.0067
vn -1.0000 -0.0043 -0.0000
vn 0.0000 0.0067 -1.0000
vn 0.0000 -0.0067 1.0000
vn -0.0001 0.0000 1.0000
vn 0.0001 0.0000 -1.0000
vn 0.0000 -0.0072 -1.0000
vn 1.0000 0.0000 0.0000
vn 0.0000 0.0000 1.0000
vn 0.0000 0.0000 -1.0000
vn -0.9996 -0.0007 0.0266
vn -1.0000 0.0000 0.0000
vn -0.0035 0.0012 -1.0000
vn 0.0164 0.0180 -0.9997
vn -0.9977 0.0681 0.0000
vn 0.0000 0.0072 1.0000
vn -0.9997 -0.0009 -0.0245
vn 0.0000 0.0069 1.0000
vn 0.0000 -0.0069 -1.0000
vn -0.9986 0.0000 0.0532
usemtl None
s off
f 1//1 2//1 3//1 4//1
f 4//2 3//2 5//2 6//2
f 6//3 5//3 7//3 8//3
f 8//4 7//4 2//4 1//4
f 4//5 6//5 8//5 1//5
f 5//6 3//6 2//6 7//6
f 9//7 10//7 11//7 12//7
f 12//8 11//8 13//8 14//8
f 14//9 13//9 15//9 16//9
f 16//10 15//10 10//10 9//10
f 12//11 14//11 16//11 9//11
f 13//12 11//12 10//12 15//12
f 17//1 18//1 19//1 20//1
f 20//2 19//2 21//2 22//2
f 22//3 21//3 23//3 24//3
f 24//4 23//4 18//4 17//4
f 20//5 22//5 24//5 17//5
f 21//6 19//6 18//6 23//6
f 25//1 26//1 27//1 28//1
f 28//2 27//2 29//2 30//2
f 30//3 29//3 31//3 32//3
f 32//4 31//4 26//4 25//4
f 28//5 30//5 32//5 25//5
f 29//6 27//6 26//6 31//6
f 33//13 34//13 35//13 36//13
f 36//14 35//14 37//14 38//14
f 38//15 37//15 39//15 40//15
f 40//16 39//16 34//16 33//16
f 36//17 38//17 40//17 33//17
f 37//18 35//18 34//18 39//18
f 41//7 42//7 43//7 44//7
f 44//8 43//8 45//8 46//8
f 46//9 45//9 47//9 48//9
f 48//10 47//10 42//10 41//10
f 44//11 46//11 48//11 41//11
f 45//12 43//12 42//12 47//12
f 49//1 50//1 51//1 52//1
f 52//2 51//2 53//2 54//2
f 54//3 53//3 55//3 56//3
f 56//4 55//4 50//4 49//4
f 52//5 54//5 56//5 49//5
f 53//6 51//6 50//6 55//6
f 57//1 58//1 59//1 60//1
f 60//2 59//2 61//2 62//2
f 62//3 61//3 63//3 64//3
f 64//4 63//4 58//4 57//4
f 60//5 62//5 64//5 57//5
f 61//6 59//6 58//6 63//6
f 65//7 66//7 67//7 68//7
f 68//8 67//8 69//8 70//8
f 70//9 69//9 71//9 72//9
f 72//10 71//10 66//10 65//10
f 68//11 70//11 72//11 65//11
f 69//12 67//12 66//12 71//12
f 73//1 74//1 75//1 76//1
f 76//2 75//2 77//2 78//2
f 78//3 77//3 79//3 80//3
f 80//4 79//4 74//4 73//4
f 76//5 78//5 80//5 73//5
f 77//6 75//6 74//6 79//6
f 81//1 82//1 83//1 84//1
f 84//2 83//2 85//2 86//2
f 86//3 85//3 87//3 88//3
f 88//4 87//4 82//4 81//4
f 84//5 86//5 88//5 81//5
f 85//6 83//6 82//6 87//6
f 89//7 90//7 91//7 92//7
f 92//8 91//8 93//8 94//8
f 94//9 93//9 95//9 96//9
f 96//10 95//10 90//10 89//10
f 92//11 94//11 96//11 89//11
f 93//12 91//12 90//12 95//12
f 97//1 98//1 99//1 100//1
f 100//2 99//2 101//2 102//2
f 102//3 101//3 103//3 104//3
f 104//4 103//4 98//4 97//4
f 100//5 102//5 104//5 97//5
f 101//6 99//6 98//6 103//6
f 105//7 106//7 107//7 108//7
f 108//8 107//8 109//8 110//8
f 110//9 109//9 111//9 112//9
f 112//10 111//10 106//10 105//10
f 108//11 110//11 112//11 105//11
f 109//12 107//12 106//12 111//12
f 113//7 114//7 115//7 116//7
f 116//8 115//8 117//8 118//8
f 118//9 117//9 119//9 120//9
f 120//10 119//10 114//10 113//10
f 116//11 118//11 120//11 113//11
f 117//12 115//12 114//12 119//12
f 121//2 122//2 123//2 124//2
f 124//19 123//19 125//19 126//19
f 126//4 125//4 127//4 128//4
f 128//20 127//20 122//20 121//20
f 124//5 126//5 128//5 121//5
f 125//6 123//6 122//6 127//6
f 129//7 130//7 131//7 132//7
f 132//8 131//8 133//8 134//8
f 134//9 133//9 135//9 136//9
f 136//10 135//10 130//10 129//10
f 132//11 134//11 136//11 129//11
f 133//12 131//12 130//12 135//12
f 137//7 138//7 139//7 140//7
f 140//8 139//8 141//8 142//8
f 142//9 141//9 143//9 144//9
f 144//10 143//10 138//10 137//10
f 140//11 142//11 144//11 137//11
f 141//12 139//12 138//12 143//12
f 145//7 146//7 147//7 148//7
f 148//8 147//8 149//8 150//8
f 150//9 149//9 151//9 152//9
f 152//10 151//10 146//10 145//10
f 148//11 150//11 152//11 145//11
f 149//12 147//12 146//12 151//12
f 153//13 154//13 155//13 156//13
f 156//14 155//14 157//14 158//14
f 158//15 157//15 159//15 160//15
f 160//16 159//16 154//16 153//16
f 156//17 158//17 160//17 153//17
f 157//18 155//18 154//18 159//18
f 161//1 162//1 163//1 164//1
f 164//2 163//2 165//2 166//2
f 166//3 165//3 167//3 168//3
f 168//4 167//4 162//4 161//4
f 164//5 166//5 168//5 161//5
f 165//6 163//6 162//6 167//6
f 169//1 170//1 171//1 172//1
f 172//2 171//2 173//2 174//2
f 174//3 173//3 175//3 176//3
f 176//4 175//4 170//4 169//4
f 172//5 174//5 176//5 169//5
f 173//6 171//6 170//6 175//6
f 177//2 178//2 179//2 180//2
f 180//19 179//19 181//19 182//19
f 182//4 181//4 183//4 184//4
f 184//20 183//20 178//20 177//20
f 180//5 182//5 184//5 177//5
f 181//6 179//6 178//6 183//6
f 185//1 186//1 187//1 188//1
f 188//2 187//2 189//2 190//2
f 190//3 189//3 191//3 192//3
f 192//4 191//4 186//4 185//4
f 188//5 190//5 192//5 185//5
f 189//6 187//6 186//6 191//6
f 193//2 194//2 195//2 196//2
f 196//19 195//19 197//19 198//19
f 198//4 197//4 199//4 200//4
f 200//20 199//20 194//20 193//20
f 196//5 198//5 200//5 193//5
f 197//6 195//6 194//6 199//6
f 201//1 202//1 203//1 204//1
f 204//2 203//2 205//2 206//2
f 206//3 205//3 207//3 208//3
f 208//4 207//4 202//4 201//4
f 204//5 206//5 208//5 201//5
f 205//6 203//6 202//6 207//6
f 209//13 210//13 211//13 212//13
f 212//14 211//14 213//14 214//14
f 214//15 213//15 215//15 216//15
f 216//16 215//16 210//16 209//16
f 212//17 214//17 216//17 209//17
f 213//18 211//18 210//18 215//18
f 217//7 218//7 219//7 220//7
f 220//8 219//8 221//8 222//8
f 222//9 221//9 223//9 224//9
f 224//10 223//10 218//10 217//10
f 220//11 222//11 224//11 217//11
f 221//12 219//12 218//12 223//12
f 225//7 226//7 227//7 228//7
f 228//8 227//8 229//8 230//8
f 230//9 229//9 231//9 232//9
f 232//10 231//10 226//10 225//10
f 228//11 230//11 232//11 225//11
f 229//12 227//12 226//12 231//12
f 233//13 234//13 235//13 236//13
f 236//14 235//14 237//14 238//14
f 238//15 237//15 239//15 240//15
f 240//16 239//16 234//16 233//16
f 236//17 238//17 240//17 233//17
f 237//18 235//18 234//18 239//18
f 241//13 242//13 243//13 244//13
f 244//14 243//14 245//14 246//14
f 246//15 245//15 247//15 248//15
f 248//16 247//16 242//16 241//16
f 244//17 246//17 248//17 241//17
f 245//18 243//18 242//18 247//18
f 249//13 250//13 251//13 252//13
f 252//14 251//14 253//14 254//14
f 254//15 253//15 255//15 256//15
f 256//16 255//16 250//16 249//16
f 252//17 254//17 256//17 249//17
f 253//18 251//18 250//18 255//18
f 257//1 258//1 259//1 260//1
f 260//2 259//2 261//2 262//2
f 262//3 261//3 263//3 264//3
f 264//4 263//4 258//4 257//4
f 260//5 262//5 264//5 257//5
f 261//6 259//6 258//6 263//6
f 265//1 266//1 267//1 268//1
f 268//2 267//2 269//2 270//2
f 270//3 269//3 271//3 272//3
f 272//4 271//4 266//4 265//4
f 268//5 270//5 272//5 265//5
f 269//6 267//6 266//6 271//6
f 273//7 274//7 275//7 276//7
f 276//8 275//8 277//8 278//8
f 278//9 277//9 279//9 280//9
f 280//10 279//10 274//10 273//10
f 276//11 278//11 280//11 273//11
f 277//12 275//12 274//12 279//12
f 281//7 282//7 283//7 284//7
f 284//8 283//8 285//8 286//8
f 286//9 285//9 287//9 288//9
f 288//10 287//10 282//10 281//10
f 284//11 286//11 288//11 281//11
f 285//12 283//12 282//12 287//12
f 289//1 290//1 291//1 292//1
f 292//2 291//2 293//2 294//2
f 294//3 293//3 295//3 296//3
f 296//4 295//4 290//4 289//4
f 292//5 294//5 296//5 289//5
f 293//6 291//6 290//6 295//6
f 365//7 366//7 367//7 368//7
f 368//8 367//8 369//8 370//8
f 370//9 369//9 371//9 372//9
f 372//10 371//10 366//10 365//10
f 368//11 370//11 372//11 365//11
f 369//12 367//12 366//12 371//12
f 373//1 374//1 375//1 376//1
f 376//2 375//2 377//2 378//2
f 378//3 377//3 379//3 380//3
f 380//4 379//4 374//4 373//4
f 376//5 378//5 380//5 373//5
f 377//6 375//6 374//6 379//6
f 381//13 382//13 383//13 384//13
f 384//14 383//14 385//14 386//14
f 386//15 385//15 387//15 388//15
f 388//16 387//16 382//16 381//16
f 384//17 386//17 388//17 381//17
f 385//18 383//18 382//18 387//18
f 389//13 390//13 391//13 392//13
f 392//14 391//14 393//14 394//14
f 394//15 393//15 395//15 396//15
f 396//16 395//16 390//16 389//16
f 392//17 394//17 396//17 389//17
f 393//18 391//18 390//18 395//18
f 397//2 398//2 399//2 400//2
f 400//19 399//19 401//19 402//19
f 402//4 401//4 403//4 404//4
f 404//20 403//20 398//20 397//20
f 400//5 402//5 404//5 397//5
f 401//6 399//6 398//6 403//6
f 405//2 406//2 407//2 408//2
f 408//19 407//19 409//19 410//19
f 410//4 409//4 411//4 412//4
f 412//20 411//20 406//20 405//20
f 408//5 410//5 412//5 405//5
f 409//6 407//6 406//6 411//6
f 413//7 414//7 415//7 416//7
f 416//8 415//8 417//8 418//8
f 418//9 417//9 419//9 420//9
f 420//10 419//10 414//10 413//10
f 416//11 418//11 420//11 413//11
f 417//12 415//12 414//12 419//12
f 421//7 422//7 423//7 424//7
f 424//8 423//8 425//8 426//8
f 426//9 425//9 427//9 428//9
f 428//10 427//10 422//10 421//10
f 424//11 426//11 428//11 421//11
f 425//12 423//12 422//12 427//12
f 429//1 430//1 431//1 432//1
f 432//2 431//2 433//2 434//2
f 434//3 433//3 435//3 436//3
f 436//4 435//4 430//4 429//4
f 432//5 434//5 436//5 429//5
f 433//6 431//6 430//6 435//6
usemtl Material.001
f 297//6 298//6 299//6 300//6
f 301//5 302//5 303//5 304//5
f 305//6 306//6 307//6 308//6
f 309//21 310//21 311//21 312//21
f 313//22 314//22 304//22 303//22
f 315//23 316//23 298//23 297//23
f 301//23 304//23 314//23 317//23
f 318//22 316//22 314//22 313//22
f 319//24 318//24 313//24 320//24
f 315//25 319//25 320//25 317//25
f 321//6 322//6 323//6 324//6
f 299//22 298//22 316//22 318//22
f 317//23 314//23 316//23 315//23
f 307//26 306//26 325//26 326//26
f 327//5 326//5 325//5 328//5
f 325//5 329//5 330//5 328//5
f 308//23 307//23 326//23 327//23
f 323//27 322//27 331//27 332//27
f 333//28 334//28 309//28 312//28
f 335//6 334//6 333//6 336//6
f 337//24 338//24 339//24 340//24
f 341//5 332//5 331//5 342//5
f 342//22 331//22 322//22 321//22
f 341//5 343//5 344//5 332//5
f 345//22 309//22 334//22 335//22
f 318//22 345//22 335//22 299//22
f 300//26 336//26 346//26 319//26
f 299//6 335//6 336//6 300//6
f 319//5 346//5 345//5 318//5
f 320//26 324//26 341//26 302//26
f 303//22 342//22 321//22 313//22
f 302//5 341//5 342//5 303//5
f 313//6 321//6 324//6 320//6
f 347//29 339//29 338//29 348//29
f 349//26 350//26 344//26 343//26
f 332//24 344//24 350//24 323//24
f 340//6 339//6 347//6 351//6
f 351//23 347//23 348//23 352//23
f 323//6 350//6 349//6 324//6
f 324//23 349//23 343//23 341//23
f 352//22 353//22 354//22 337//22
f 355//5 311//5 310//5 356//5
f 346//30 355//30 356//30 345//30
f 345//22 356//22 310//22 309//22
f 312//31 311//31 355//31 346//31
f 346//5 352//5 337//5 312//5
f 336//23 351//23 352//23 346//23
f 333//6 340//6 351//6 336//6
f 312//24 337//24 340//24 333//24
f 353//5 357//5 358//5 354//5
f 338//26 358//26 357//26 348//26
f 348//32 357//32 353//32 352//32
f 337//33 354//33 358//33 338//33
f 359//5 360//5 361//5 362//5
f 300//34 319//34 315//34 297//34
f 317//23 308//23 327//23 301//23
f 302//24 328//24 305//24 320//24
f 301//5 327//5 328//5 302//5
f 320//6 305//6 308//6 317//6
f 330//24 329//24 363//24 364//24
f 328//22 330//22 364//22 305//22
f 305//6 364//6 363//6 306//6
f 306//26 363//26 329//26 325//26
