%YAML 1.1
%TAG !u! tag:unity3d.com,2011:
--- !u!114 &11400000
MonoBehaviour:
  m_ObjectHideFlags: 0
  m_CorrespondingSourceObject: {fileID: 0}
  m_PrefabInstance: {fileID: 0}
  m_PrefabAsset: {fileID: 0}
  m_GameObject: {fileID: 0}
  m_Enabled: 1
  m_EditorHideFlags: 0
  m_Script: {fileID: 11500000, guid: 8a6c30b6dc9e29643a423b6c1578f28e, type: 3}
  m_Name: Crafting
  m_EditorClassIdentifier: 
  itemName: Rope
  itemType: 1
  buyPrice: 10
  sellPrice: 1
  craftCost: 0
  hashID: 288126985
  itemStats:
    Level: 0
    HP: 0
    STR: 0
    SPD: 0
    DEX: 0
    CON: 0
    INT: 0
    WIS: 0
    LUK: 0
    ATK: 0
    DEF: 0
  equibleClasses: 
  itemPrefab: {fileID: 0}
  itemSprite: {fileID: 21300000, guid: ca6c981b17406514e9f6df7e39de602e, type: 3}
