%YAML 1.1
%TAG !u! tag:unity3d.com,2011:
--- !u!114 &11400000
MonoBehaviour:
  m_ObjectHideFlags: 0
  m_CorrespondingSourceObject: {fileID: 0}
  m_PrefabInstance: {fileID: 0}
  m_PrefabAsset: {fileID: 0}
  m_GameObject: {fileID: 0}
  m_Enabled: 1
  m_EditorHideFlags: 0
  m_Script: {fileID: 11500000, guid: 8a6c30b6dc9e29643a423b6c1578f28e, type: 3}
  m_Name: Weapon
  m_EditorClassIdentifier: 
  itemName: Longsword
  itemType: 2
  buyPrice: 0
  sellPrice: 50
  craftCost: 0
  hashID: 1172008674
  itemStats:
    Level: 0
    HP: 0
    STR: 0
    SPD: 0
    DEX: 0
    CON: 0
    INT: 0
    WIS: 0
    LUK: 0
    ATK: 15
    DEF: 0
  equibleClasses: 000000000100000003000000
  itemPrefab: {fileID: 0}
  itemSprite: {fileID: 21300000, guid: 8e154312ce79b8d4a8f2a2e7254003ac, type: 3}
  itemDescription: 
